Airbnb Edinburgh Exploratory Data Analysis. · Musa R. Nyakerabachi
…
From above code snippet there is house with no bed, while most houses had one bed and the is a house with 30 beds with only one person accommodation.

Next let’s see the house which was expensive taking bed factor taken into consideration.I’ll use the same dplyr package.

edibnb %>% group_by(beds) %>% 
  summarise(mean = mean(price, na.rm = T), n = n()) %>% 
  arrange(desc(mean))

## `summarise()` ungrouping output (override with `.groups` argument)

## # A tibble: 25 x 3
##     beds  mean     n
##    <dbl> <dbl> <int>
##  1    20  880      3
##  2    14  386.     7
##  3    12  384.    11
##  4    10  379.    15
##  5    16  371     17
##  6    15  304.     5
##  7     8  256.    52
##  8    13  240      2
##  9     9  234     20
## 10     7  230.    47
## # ... with 15 more rows

From above a 20 bed house was considered expensive, a person paying roughly 880 dollars and only 3 people listed for the house.Having seen the most expensive house considering number of beds next I’ll look at the house that was cheap considering number of beds a house had, in this case I’ll drop desc in arrange function to arrange the number of beds in ascending order.

edibnb %>% group_by(beds) %>% 
  summarise(mean = mean(price, na.rm = T), n = n()) %>% 
  arrange(mean)

## `summarise()` ungrouping output (override with `.groups` argument)

## # A tibble: 25 x 3
##     beds  mean     n
##    <dbl> <dbl> <int>
##  1     1  65.0  6164
##  2     2  97.5  3710
##  3     0 110.     42
##  4    NA 121.     15
##  5     3 128.   1801
##  6    24 135       1
##  7     4 167.    832
##  8    17 200       2
##  9     6 202.    159
## 10    11 212.      7
## # ... with 15 more rows
…
