Investigating Covid 19 Virus trends. · Musa R. Nyakerabachi
…
Summarizing the data based on the Country_Region column.

covid_df_all_states_daily_sum <- covid_df_all_states_daily %>% 
  group_by(Country_Region) %>% 
  summarise(tested = sum(daily_tested), 
            positive = sum(daily_positive),
            active = sum(active),
            hospitalized = sum(hospitalizedCurr)) %>% 
  arrange(desc(tested)) #this is equivalent to `arrange(-tested)`

## `summarise()` ungrouping output (override with `.groups` argument)

covid_df_all_states_daily_sum

## # A tibble: 109 x 5
##    Country_Region   tested positive   active hospitalized
##    <chr>             <int>    <int>    <int>        <int>
##  1 United States  34218115  3660635 27687993      2899151
##  2 Russia         10542266   406368  6924890            0
##  3 Italy           4091291   251710  6202214      1699003
##  4 India           3692851    60959        0            0
##  5 Canada          3314703   181769  1477358            0
##  6 Australia       2658762    14400   269172        14020
##  7 Turkey          2031192   163941  2980960            0
##  8 United Kingdom  1473672   166909        0            0
##  9 Peru             976790    59497        0            0
## 10 Poland           928256    23987   538203            0
## # ... with 99 more rows
…
